<?xml version="1.0" encoding="UTF-8"?>
<testng-results skipped="0" failed="0" total="0" passed="0">
  <reporter-output>
  </reporter-output>
  <suite name="Surefire suite" duration-ms="4605" started-at="2018-03-01T11:46:39Z" finished-at="2018-03-01T11:46:44Z">
    <groups>
    </groups>
    <test name="Surefire test" duration-ms="4605" started-at="2018-03-01T11:46:39Z" finished-at="2018-03-01T11:46:44Z">
    </test> <!-- Surefire test -->
  </suite> <!-- Surefire suite -->
</testng-results>
