C:\Users\Ravi Kumar\StudioProjects\app-tests\src\test\java\com\salarium\android\testautomation\commonlibrary\ReadExcelFile.java
C:\Users\Ravi Kumar\StudioProjects\app-tests\src\test\java\com\salarium\android\testautomation\commonlibrary\ReadJsonFile.java
C:\Users\Ravi Kumar\StudioProjects\app-tests\src\test\java\com\salarium\android\testautomation\pageobjects\HomeScreen.java
C:\Users\Ravi Kumar\StudioProjects\app-tests\src\test\java\com\salarium\android\testautomation\commonlibrary\PrepearTestData.java
C:\Users\Ravi Kumar\StudioProjects\app-tests\src\test\java\com\salarium\android\testautomation\commonlibrary\CommonErrorExeptions.java
C:\Users\Ravi Kumar\StudioProjects\app-tests\src\test\java\com\salarium\android\testautomation\commonlibrary\Utility.java
C:\Users\Ravi Kumar\StudioProjects\app-tests\src\test\java\com\salarium\android\testautomation\pageobjects\LoginScreen.java
C:\Users\Ravi Kumar\StudioProjects\app-tests\src\test\java\com\salarium\android\testautomation\commonlibrary\PrepearObjectRepo.java
C:\Users\Ravi Kumar\StudioProjects\app-tests\src\test\java\com\salarium\android\testautomation\commonlibrary\AppiumCommLib.java
C:\Users\Ravi Kumar\StudioProjects\app-tests\src\test\java\com\salarium\android\testautomation\commonlibrary\ReadPropertyValues.java
C:\Users\Ravi Kumar\StudioProjects\app-tests\src\test\java\com\salarium\android\testautomation\commonlibrary\Report.java
C:\Users\Ravi Kumar\StudioProjects\app-tests\src\test\java\com\salarium\android\testautomation\commonlibrary\ReportToHTML.java
C:\Users\Ravi Kumar\StudioProjects\app-tests\src\test\java\com\salarium\android\testautomation\driver\AndroidDriverInit.java
C:\Users\Ravi Kumar\StudioProjects\app-tests\src\test\java\com\salarium\android\testautomation\driver\SmokeRunner.java
C:\Users\Ravi Kumar\StudioProjects\app-tests\src\test\java\com\salarium\android\testautomation\stepDefination\SmokeTestStep.java
